{
  "cSpell.words": [
    "eventstore"
  ],
  "editor.tabSize": 2,
  "editor.formatOnSave": true,
  "javascript.updateImportsOnFileMove.enabled": "always",
  "typescript.updateImportsOnFileMove.enabled": "always",
  "editor.detectIndentation": false,
  "typescript.tsdk": "node_modules/typescript/lib"
}